…
$y
$y$y.A
[1] 87035.5

$y$y.B
[1] 104413.6

$y$y.diff
[1] -17378.1


attr(,"class")
[1] "oaxaca"
[1] "############### METHOD: OAXACA DECOMPOSITION decr R ###############"
# A tibble: 11,456 × 18
   identif bage  class    sex   homeowner RIF_actreales facine3 strata   `0`
 *   <dbl> <fct> <fct>    <fct> <fct>             <dbl>   <dbl> <chr>  <int>
 1       0 45-54 worker   Man   Homeowner       191269.  4558.  45-54…   325
 2       0 35-44 inactive Women Non-Owner       191269.   144.  35-44…    22
 3       0 75    retired  Man   Homeowner       191269.   212.  75_re…   352
 4       0 65-75 retired  Man   Homeowner       191269.    15.2 65-75…   621
 5       0 45-54 inactive Women Homeowner       191269.    32.9 45-54…    72
 6       0 0-34  worker   Man   Homeowner       -23269.  5725.  0-34_…   138
 7       0 54-65 retired  Man   Homeowner       191269.   252.  54-65…   162
 8       0 75    retired  Man   Homeowner       191269.   346.  75_re…   352
 9       0 65-75 retired  Man   Homeowner       191269.  2387.  65-75…   621
10       0 0-34  worker   Man   Homeowner       191269.  5889.  0-34_…   138
# ℹ 11,446 more rows
# ℹ 9 more variables: `1` <int>, n_diff <int>, common_support <lgl>,
#   rw_BA <dbl>, rw_AB <dbl>, f_A <dbl>, f_B <dbl>, w_BA <dbl>, w_AB <dbl>
# ℹ Use `print(n = ...)` to see more rows
…
